%YAML 1.1
%TAG !u! tag:unity3d.com,2011:
--- !u!114 &11400000
MonoBehaviour:
  m_ObjectHideFlags: 0
  m_CorrespondingSourceObject: {fileID: 0}
  m_PrefabInstance: {fileID: 0}
  m_PrefabAsset: {fileID: 0}
  m_GameObject: {fileID: 0}
  m_Enabled: 1
  m_EditorHideFlags: 0
  m_Script: {fileID: 11500000, guid: bcfa36b5e4d1861469d0214cb2770dd4, type: 3}
  m_Name: Tomato
  m_EditorClassIdentifier: 
  seedSprite: {fileID: 21300000, guid: df88a96e825158248843065fcf3bd6c7, type: 3}
  youngSprite: {fileID: 21300000, guid: 64bd468cd55575d4fa2790d6d962d1c2, type: 3}
  doneSprite: {fileID: 21300000, guid: 07b9c08fe0ee92b4c8b94cf1625f7c5a, type: 3}
  finalSprite: {fileID: 21300000, guid: 6ff707aaf7efd9349aef2fcbd9d724b0, type: 3}
  price: 3
  seedIsOnGround: 0
